{
    "KPackageStructure": "Plasma/Applet",
    "KPlugin": {
        "Authors": [
            {
                "Email": "albertvaka@gmail.com",
                "Name": "Albert Vaca Cintora",
                "Name[ar]": "ألبرت فاكا سينتورا",
                "Name[az]": "Albert Vaca Cintora",
                "Name[bg]": "Albert Vaca Cintora",
                "Name[ca@valencia]": "Albert Vaca Cintora",
                "Name[ca]": "Albert Vaca Cintora",
                "Name[cs]": "Albert Vaca Cintora",
                "Name[de]": "Albert Vaca Cintora",
                "Name[en_GB]": "Albert Vaca Cintora",
                "Name[eo]": "Albert Vaca Cintora",
                "Name[es]": "Albert Vaca Cintora",
                "Name[eu]": "Albert Vaca Cintora",
                "Name[fi]": "Albert Vaca Cintora",
                "Name[fr]": "Albert Vaca Cintora",
                "Name[gl]": "Albert Vaca Cintora",
                "Name[he]": "אלברט ואקה סינטורה",
                "Name[hu]": "Albert Vaca Cintora",
                "Name[ia]": "Albert Vaca Cintora",
                "Name[it]": "Albert Vaca Cintora",
                "Name[ja]": "Albert Vaca Cintora",
                "Name[ka]": "Albert Vaca Cintora",
                "Name[ko]": "Albert Vaca Cintora",
                "Name[lt]": "Albert Vaca Cintora",
                "Name[lv]": "Albert Vaca Cintora",
                "Name[nl]": "Albert Vaca Cintora",
                "Name[nn]": "Albert Vaca Cintora",
                "Name[pl]": "Albert Vaca Cintora",
                "Name[pt]": "Albert Vaca Cintora",
                "Name[pt_BR]": "Albert Vaca Cintora",
                "Name[ro]": "Albert Vaca Cintora",
                "Name[ru]": "Albert Vaca Cintora",
                "Name[sl]": "Albert Vaca Cintora",
                "Name[sv]": "Albert Vaca Cintora",
                "Name[tr]": "Albert Vaca Cintora",
                "Name[uk]": "Albert Vaca Cintora",
                "Name[x-test]": "xxAlbert Vaca Cintoraxx",
                "Name[zh_CN]": "Albert Vaca Cintora",
                "Name[zh_TW]": "Albert Vaca Cintora"
            }
        ],
        "Category": "System Information",
        "Description": "Show notifications from your devices using KDE Connect",
        "Description[ar]": "أظهر الإخطارات من أجهزتك باستخدام «كِيدِي المتّصل»",
        "Description[az]": "KDE Connect istifadə edərək digər cihazlardakı bildirişləri göstərmək",
        "Description[bg]": "Показване на известия от вашите устройства чрез KDE Connect",
        "Description[ca@valencia]": "Mostra les notificacions dels vostres dispositius emprant KDE Connect",
        "Description[ca]": "Mostra les notificacions dels vostres dispositius emprant el KDE Connect",
        "Description[cs]": "Zobrazit oznámení z vašich zařízení pomocí KDE Connect",
        "Description[de]": "Zeigt Benachrichtigungen von Ihren Geräten mit KDE Connect",
        "Description[eo]": "Montri sciigojn de viaj aparatoj per KDE Connect",
        "Description[es]": "Mustra notificaciones de sus otros dispositivos usando KDE Connect",
        "Description[eu]": "Erakutsi zure gailuetako jakinarazpenak KDE Connect erabiliz",
        "Description[fi]": "Näytä laitteittesi ilmoitukset KDE Connectilla",
        "Description[fr]": "Afficher des notifications provenant de vos périphériques en utilisant KDE Connect",
        "Description[gl]": "Amosar as notificacións dos dispositivos con KDE Connect.",
        "Description[he]": "הצגת התראות מהמכשירים שלך בעזרת KDE Connect",
        "Description[hu]": "Értesítések megjelenítése eszközeiről a KDE Connecttel",
        "Description[ia]": "Monstra notificationes ex tu dispositivos usante KDE Connect",
        "Description[it]": "Mostra le notifiche dei tuoi dispositivi tramite KDE Connect",
        "Description[ja]": "KDE Connect を使用してデバイスの通知を表示",
        "Description[ka]": "KDE Connect-ის გამოყენებით თქვენი მოწყობილობებიდან გაფრთხილებების ჩვენება",
        "Description[ko]": "KDE Connect로 장치에 표시된 알림 보기",
        "Description[lt]": "Rodyti pranešimus iš jūsų įrenginių naudojant KDE Connect",
        "Description[lv]": "Parādīt paziņojumus no ierīces, izmantojot „KDE Connect“",
        "Description[nl]": "Meldingen van uw apparaten met KDE Connect tonen",
        "Description[nn]": "Vis varslingar frå einingane dine med KDE Connect",
        "Description[pl]": "Pokazuje powiadomienia z urządzeń z KDE Connect",
        "Description[pt_BR]": "Mostrar notificações dos seus dispositivos usando o KDE Connect",
        "Description[ro]": "Arată notificări de pe dispozitivele dumneavoastră folosind KDE Connect",
        "Description[ru]": "Просмотр уведомлений с мобильных устройств с помощью KDE Connect",
        "Description[sl]": "Pošljite obvestila iz drugih naprav s pomočjo KDE Connect",
        "Description[sv]": "Visa underrättelser från apparater med KDE anslut",
        "Description[tr]": "KDE Bağlan'ı kullanarak aygıttan gelen bildirimleri göster",
        "Description[uk]": "Показ сповіщень з ваших пристроїв за допомогою програми «З’єднання KDE»",
        "Description[x-test]": "xxShow notifications from your devices using KDE Connectxx",
        "Description[zh_CN]": "通过 KDE Connect 显示来自其他设备的通知",
        "Description[zh_TW]": "使用 KDE 連線顯示來自您的裝置的通知",
        "EnabledByDefault": true,
        "Icon": "kdeconnect",
        "Id": "org.kde.kdeconnect",
        "License": "GPL",
        "Name": "KDE Connect",
        "Name[ar]": "كِيدِي المتّصل",
        "Name[az]": "KDE Connect",
        "Name[bg]": "KDE Connect",
        "Name[ca@valencia]": "KDE Connect",
        "Name[ca]": "KDE Connect",
        "Name[cs]": "KDE Connect",
        "Name[de]": "KDE Connect",
        "Name[en_GB]": "KDE Connect",
        "Name[eo]": "KDE Konekti",
        "Name[es]": "KDE Connect",
        "Name[eu]": "KDE Connect",
        "Name[fi]": "KDE Connect",
        "Name[fr]": "KDE Connect",
        "Name[gl]": "KDE Connect",
        "Name[he]": "KDE Connect",
        "Name[hu]": "KDE Connect",
        "Name[ia]": "KDE Connect",
        "Name[is]": "KDE Connect",
        "Name[it]": "KDE Connect",
        "Name[ja]": "KDE Connect",
        "Name[ka]": "KDE Connect",
        "Name[ko]": "KDE Connect",
        "Name[lt]": "KDE Connect",
        "Name[lv]": "KDE Connect",
        "Name[nl]": "KDE Connect",
        "Name[nn]": "KDE Connect",
        "Name[pl]": "KDE Connect",
        "Name[pt]": "KDE Connect",
        "Name[pt_BR]": "KDE Connect",
        "Name[ro]": "KDE Connect",
        "Name[ru]": "KDE Connect",
        "Name[sl]": "KDE Connect",
        "Name[sv]": "KDE-anslut",
        "Name[tr]": "KDE Bağlan",
        "Name[uk]": "KDE Connect",
        "Name[x-test]": "xxKDE Connectxx",
        "Name[zh_CN]": "KDE Connect",
        "Name[zh_TW]": "KDE 連線",
        "Version": "0.1",
        "Website": "https://albertvaka.wordpress.com"
    },
    "X-Plasma-API": "declarativeappletscript",
    "X-Plasma-API-Minimum-Version": "6.0",
    "X-Plasma-ConfigPlugins": [
        "kcm_kdeconnect"
    ],
    "X-Plasma-MainScript": "ui/main.qml",
    "X-Plasma-NotificationArea": "true",
    "X-Plasma-NotificationAreaCategory": "Hardware"
}
